<?xml version="1.0" encoding="UTF-8" standalone="no"?>
<!-- Created with Inkscape (http://www.inkscape.org/) -->
<svg id="svg2" xmlns:rdf="http://www.w3.org/1999/02/22-rdf-syntax-ns#" xmlns="http://www.w3.org/2000/svg" height="5.006mm" viewBox="0 0 20.492298 17.737998" width="5.7834mm" version="1.1" xmlns:cc="http://creativecommons.org/ns#" xmlns:dc="http://purl.org/dc/elements/1.1/">
 <metadata id="metadata7">
  <rdf:RDF>
   <cc:Work rdf:about="">
    <dc:format>image/svg+xml</dc:format>
    <dc:type rdf:resource="http://purl.org/dc/dcmitype/StillImage"/>
    <dc:title/>
   </cc:Work>
  </rdf:RDF>
 </metadata>
 <g id="layer1" transform="translate(-55.583 -351.04)">
  <path id="path3347" fill="#9494ff" d="m60.519 363.82-4.9357-4.956 3.35-0.006 3.35-0.006-0.007-3.901-0.007-3.901 3.5463-0.007 3.5463-0.007 0.007 3.901 0.007 3.901 3.35-0.006 3.35-0.006-4.9179 4.9736c-2.7049 2.7355-5.0946 4.974-5.3106 4.9744-0.21596 0.0004-2.6137-2.2295-5.3284-4.9554z"/>
 </g>
</svg>
