<?xml version="1.0" encoding="UTF-8" standalone="no"?>
<!-- Created with Inkscape (http://www.inkscape.org/) -->

<svg
   xmlns:dc="http://purl.org/dc/elements/1.1/"
   xmlns:cc="http://creativecommons.org/ns#"
   xmlns:rdf="http://www.w3.org/1999/02/22-rdf-syntax-ns#"
   xmlns:svg="http://www.w3.org/2000/svg"
   xmlns="http://www.w3.org/2000/svg"
   xmlns:sodipodi="http://sodipodi.sourceforge.net/DTD/sodipodi-0.dtd"
   xmlns:inkscape="http://www.inkscape.org/namespaces/inkscape"
   id="svg3123"
   sodipodi:docname="1361982728.svg"
   viewBox="0 0 92.844004 73.188002"
   version="1.1"
   inkscape:version="0.91 r13725"
   width="92.844002"
   height="73.188004">
  <defs
     id="defs4149" />
  <title
     id="title3044">player icons</title>
  <sodipodi:namedview
     id="base"
     bordercolor="#666666"
     inkscape:pageshadow="2"
     inkscape:window-y="-8"
     fit-margin-left="0"
     pagecolor="#ffffff"
     fit-margin-top="0"
     inkscape:window-maximized="1"
     inkscape:zoom="0.98994949"
     inkscape:window-x="1912"
     inkscape:window-height="1018"
     showgrid="false"
     borderopacity="1.0"
     inkscape:current-layer="layer1"
     inkscape:cx="248.56028"
     inkscape:cy="70.425176"
     fit-margin-right="0"
     fit-margin-bottom="0"
     inkscape:window-width="1920"
     inkscape:pageopacity="0.0"
     inkscape:document-units="px" />
  <g
     id="layer1"
     inkscape:label="Livello 1"
     inkscape:groupmode="layer"
     transform="translate(34.59,-359.429)">
    <path
       id="fastforward"
       style="color:#000000;fill:#ffffff"
       inkscape:connector-curvature="0"
       d="m -34.59,359.43 0,72.562 30,-16.781 0,17.406 62.844,-35.125 -62.844,-37.469 0,17.281 -30,-17.875 z" />
  </g>
  <metadata
     id="metadata4147">
    <rdf:RDF>
      <cc:Work>
        <dc:format>image/svg+xml</dc:format>
        <dc:type
           rdf:resource="http://purl.org/dc/dcmitype/StillImage" />
        <cc:license
           rdf:resource="http://creativecommons.org/publicdomain/zero/1.0/" />
        <dc:publisher>
          <cc:Agent
             rdf:about="http://openclipart.org/">
            <dc:title>Openclipart</dc:title>
          </cc:Agent>
        </dc:publisher>
        <dc:title>player icons</dc:title>
        <dc:date>2013-02-27T11:32:08</dc:date>
        <dc:description>icon set for media player buttons, black and white flat symbols only, power button included</dc:description>
        <dc:source>https://openclipart.org/detail/175338/player-buttons-icon-set-by-harinezumi-175338</dc:source>
        <dc:creator>
          <cc:Agent>
            <dc:title>harinezumi</dc:title>
          </cc:Agent>
        </dc:creator>
        <dc:subject>
          <rdf:Bag>
            <rdf:li>button</rdf:li>
            <rdf:li>fast forward</rdf:li>
            <rdf:li>ffwd</rdf:li>
            <rdf:li>icons</rdf:li>
            <rdf:li>pause</rdf:li>
            <rdf:li>play</rdf:li>
            <rdf:li>player</rdf:li>
            <rdf:li>power</rdf:li>
            <rdf:li>rec.record.recorder</rdf:li>
            <rdf:li>recorder</rdf:li>
            <rdf:li>rew</rdf:li>
            <rdf:li>rewind</rdf:li>
            <rdf:li>stop</rdf:li>
          </rdf:Bag>
        </dc:subject>
      </cc:Work>
      <cc:License
         rdf:about="http://creativecommons.org/publicdomain/zero/1.0/">
        <cc:permits
           rdf:resource="http://creativecommons.org/ns#Reproduction" />
        <cc:permits
           rdf:resource="http://creativecommons.org/ns#Distribution" />
        <cc:permits
           rdf:resource="http://creativecommons.org/ns#DerivativeWorks" />
      </cc:License>
    </rdf:RDF>
  </metadata>
</svg>
