<?xml version="1.0" encoding="UTF-8" standalone="no"?>
<!-- Created with Inkscape (http://www.inkscape.org/) -->
<svg id="svg2" xmlns:rdf="http://www.w3.org/1999/02/22-rdf-syntax-ns#" xmlns="http://www.w3.org/2000/svg" height="5.0097mm" viewBox="0 0 20.492201 17.750752" width="5.7834mm" version="1.1" xmlns:cc="http://creativecommons.org/ns#" xmlns:dc="http://purl.org/dc/elements/1.1/">
 <metadata id="metadata7">
  <rdf:RDF>
   <cc:Work rdf:about="">
    <dc:format>image/svg+xml</dc:format>
    <dc:type rdf:resource="http://purl.org/dc/dcmitype/StillImage"/>
    <dc:title/>
   </cc:Work>
  </rdf:RDF>
 </metadata>
 <g id="layer1" transform="translate(-55.58 -351.04)">
  <path id="path3347" fill="#989898" d="m71.173 356.03 4.8994 4.9919-3.3499-0.0184-3.3499-0.0184-0.02148 3.9009-0.02148 3.9009-3.5463-0.0195-3.5463-0.0195 0.02148-3.9009 0.02148-3.9009-3.3499-0.0184-3.3499-0.0184 4.9541-4.9377c2.7247-2.7157 5.1308-4.9367 5.3467-4.9355 0.21597 0.0009 2.5974 2.2485 5.2921 4.9941z"/>
 </g>
</svg>
